{
	"globals": {
		"v": "",
		"verbose": 0,
		"bulk": 100,
		"timeout": 900,
		"prefix": "",
		"remote": ""
	},
	"generators": [
		{
			"options": ["H", "hostgroup"],
			"params": ["prefix"],
			"default": {},
			"description": "Create host groups.",
			"class": "Zabbix\\DataLoader\\Generators\\HostGroupGenerator",
			"path": "generators/HostGroupGenerator.php"
		},
		{
			"options": ["T", "template"],
			"params": ["prefix", "tids"],
			"default": {},
			"description": "Create templates for host groups.",
			"class": "Zabbix\\DataLoader\\Generators\\TemplateGenerator",
			"path": "generators/TemplateGenerator.php"
		},
		{
			"options": ["h", "host"],
			"params": ["prefix", "tids"],
			"default": {},
			"description": "Create hosts for host groups.",
			"class": "Zabbix\\DataLoader\\Generators\\HostGenerator",
			"path": "generators/HostGenerator.php"
		},
		{
			"options": ["a", "application"],
			"params": ["prefix"],
			"default": {},
			"description": "Create applications for host.",
			"class": "Zabbix\\DataLoader\\Generators\\HostApplicationGenerator",
			"path": "generators/HostApplicationGenerator.php"
		},
		{
			"options": ["i", "item"],
			"params": ["prefix", "item_type", "value_type", "delay", "params", "preproc_type", "preproc_params", "tags"],
			"default": {
				"item_type": "2",
				"value_type": "0",
				"delay": "30s"
			},
			"description": "Create items for host.",
			"class": "Zabbix\\DataLoader\\Generators\\HostItemGenerator",
			"path": "generators/HostItemGenerator.php"
		},
		{
			"options": ["t", "trigger"],
			"params": ["prefix", "function", "priority"],
			"default": {
				"function": "last(),prev()",
				"priority": "0,1,2"
			},
			"description": "Create triggers for host.",
			"class": "Zabbix\\DataLoader\\Generators\\HostTriggerGenerator",
			"path": "generators/HostTriggerGenerator.php"
		},
		{
			"options": ["g", "graph"],
			"params": ["prefix", "width", "height", "graphtype", "percent_left", "percent_right", "show_3d", "show_legend",
				"show_work_period", "color", "max"
			],
			"default": {
				"width": "320",
				"height": "240",
				"graphtype": "0,1,2",
				"show_3d": "0,1",
				"show_legend": "0,1",
				"show_work_period": "0,1",
				"color": "1A7C11,F63100,2774A4,A54F10,FC6EA3,6C59DC,AC8C14,611F27,F230E0,5CCD18,BB2A02,5A2B57,89ABF8,7EC25C,274482,2B5429,8048B4,FD5434,790E1F,87AC4D,E89DF4"
			},
			"description": "Create graphs for created hosts.",
			"class": "Zabbix\\DataLoader\\Generators\\HostGraphGenerator",
			"path": "generators/HostGraphGenerator.php"
		},
		{
			"options": ["U", "usergroup"],
			"params": ["prefix", "permissions"],
			"default": {
				"permissions": "3"
			},
			"description": "Create user groups.",
			"class": "Zabbix\\DataLoader\\Generators\\UserGroupGenerator",
			"path": "generators/UserGroupGenerator.php"
		},
		{
			"options": ["u", "user"],
			"params": ["prefix", "type"],
			"default": {
				"type": "1"
			},
			"description": "Create users for user groups.",
			"class": "Zabbix\\DataLoader\\Generators\\UserGenerator",
			"path": "generators/UserGenerator.php"
		},
		{
			"options": ["p", "proxy"],
			"params": ["prefix", "status", "dns", "ip", "port", "useip"],
			"default": {
				"status": "5,6",
				"dns": "localhost,",
				"ip": ",127.0.0.1",
				"useip": "0,1",
				"port": "10051"
			},
			"description": "Create proxy.",
			"class": "Zabbix\\DataLoader\\Generators\\ProxyGenerator",
			"path": "generators/ProxyGenerator.php"
		},
		{
			"options": ["m", "map"],
			"params": ["prefix", "icon", "icon_off", "width", "height", "cols", "rows"],
			"default": {
				"width": "800",
				"height": "600",
				"icon": "Cloud_(64),Disk_array_2D_(64),House_(64),IP_PBX_(64),Network_adapter_(64)",
				"icon_off": "Cloud_(64),Disk_array_2D_(64),House_(64),IP_PBX_(64),Network_adapter_(64)"
			},
			"description": "Create maps for generated hosts, triggers and host groups.",
			"class": "Zabbix\\DataLoader\\Generators\\MapGenerator",
			"path": "generators/MapGenerator.php"
		},
		{
			"options": ["submap"],
			"params": ["icon", "icon_off", "width", "height", "cols", "rows"],
			"default": {
				"width": "800",
				"height": "600",
				"icon": "Cloud_(64),Disk_array_2D_(64),House_(64),IP_PBX_(64),Network_adapter_(64)",
				"icon_off": "Cloud_(64),Disk_array_2D_(64),House_(64),IP_PBX_(64),Network_adapter_(64)"
			},
			"description": "Add generated maps as nested maps.",
			"class": "Zabbix\\DataLoader\\Generators\\NestedMapGenerator",
			"path": "generators/NestedMapGenerator.php"
		},
		{
			"options": ["data"],
			"params": ["prefix", "from", "to", "server", "port", "itemid", "min", "max"],
			"default": {
				"from": "-1 month",
				"to": "now",
				"min": 0,
				"max": 100,
				"server": "127.0.0.1",
				"port": "10051"
			},
			"description": "Add data via trapper to created items, or specific item when --itemid is defined.",
			"class": "Zabbix\\DataLoader\\Generators\\HostItemDataGenerator",
			"path": "generators/HostItemDataGenerator.php"
		}
	]
}